\babel@toc {english}{}
\contentsline {chapter}{\numberline {1}pkg package}{1}{chapter.1}%
\contentsline {section}{\numberline {1.1}Subpackages}{1}{section.1.1}%
\contentsline {subsection}{\numberline {1.1.1}pkg.api package}{1}{subsection.1.1.1}%
\contentsline {subsubsection}{Module contents}{1}{subsubsection*.3}%
\contentsline {subsection}{\numberline {1.1.2}pkg.commons package}{1}{subsection.1.1.2}%
\contentsline {subsubsection}{Module contents}{1}{subsubsection*.4}%
\contentsline {subsection}{\numberline {1.1.3}pkg.core package}{1}{subsection.1.1.3}%
\contentsline {subsubsection}{Module contents}{1}{subsubsection*.7}%
\contentsline {subsection}{\numberline {1.1.4}pkg.exceptions package}{2}{subsection.1.1.4}%
\contentsline {subsubsection}{Module contents}{2}{subsubsection*.9}%
\contentsline {section}{\numberline {1.2}Module contents}{2}{section.1.2}%
\contentsline {chapter}{\numberline {2}Indices and tables}{3}{chapter.2}%
\contentsline {chapter}{Python Module Index}{5}{section*.12}%
