\relax 
\providecommand\hyper@newdestlabel[2]{}
\@nameuse{bbl@beforestart}
\providecommand\HyperFirstAtBeginDocument{\AtBeginDocument}
\HyperFirstAtBeginDocument{\ifx\hyper@anchor\@undefined
\global\let\oldcontentsline\contentsline
\gdef\contentsline#1#2#3#4{\oldcontentsline{#1}{#2}{#3}}
\global\let\oldnewlabel\newlabel
\gdef\newlabel#1#2{\newlabelxx{#1}#2}
\gdef\newlabelxx#1#2#3#4#5#6{\oldnewlabel{#1}{{#2}{#3}}}
\AtEndDocument{\ifx\hyper@anchor\@undefined
\let\contentsline\oldcontentsline
\let\newlabel\oldnewlabel
\fi}
\fi}
\global\let\hyper@last\relax 
\gdef\HyperFirstAtBeginDocument#1{#1}
\providecommand\HyField@AuxAddToFields[1]{}
\providecommand\HyField@AuxAddToCoFields[2]{}
\babel@aux{english}{}
\newlabel{index::doc}{{}{1}{}{section*.2}{}}
\@writefile{toc}{\contentsline {chapter}{\numberline {1}pkg package}{1}{chapter.1}\protected@file@percent }
\@writefile{lof}{\addvspace {10\p@ }}
\@writefile{lot}{\addvspace {10\p@ }}
\newlabel{pkg:pkg-package}{{1}{1}{pkg package}{chapter.1}{}}
\newlabel{pkg::doc}{{1}{1}{pkg package}{chapter.1}{}}
\@writefile{toc}{\contentsline {section}{\numberline {1.1}Subpackages}{1}{section.1.1}\protected@file@percent }
\newlabel{pkg:subpackages}{{1.1}{1}{Subpackages}{section.1.1}{}}
\@writefile{toc}{\contentsline {subsection}{\numberline {1.1.1}pkg.api package}{1}{subsection.1.1.1}\protected@file@percent }
\newlabel{pkg.api:pkg-api-package}{{1.1.1}{1}{pkg.api package}{subsection.1.1.1}{}}
\newlabel{pkg.api::doc}{{1.1.1}{1}{pkg.api package}{subsection.1.1.1}{}}
\@writefile{toc}{\contentsline {subsubsection}{Module contents}{1}{subsubsection*.3}\protected@file@percent }
\newlabel{pkg.api:module-pkg.api}{{1.1.1}{1}{Module contents}{subsubsection*.3}{}}
\newlabel{pkg.api:module-contents}{{1.1.1}{1}{Module contents}{subsubsection*.3}{}}
\@writefile{toc}{\contentsline {subsection}{\numberline {1.1.2}pkg.commons package}{1}{subsection.1.1.2}\protected@file@percent }
\newlabel{pkg.commons:pkg-commons-package}{{1.1.2}{1}{pkg.commons package}{subsection.1.1.2}{}}
\newlabel{pkg.commons::doc}{{1.1.2}{1}{pkg.commons package}{subsection.1.1.2}{}}
\@writefile{toc}{\contentsline {subsubsection}{Module contents}{1}{subsubsection*.4}\protected@file@percent }
\newlabel{pkg.commons:module-pkg.commons}{{1.1.2}{1}{Module contents}{subsubsection*.4}{}}
\newlabel{pkg.commons:module-contents}{{1.1.2}{1}{Module contents}{subsubsection*.4}{}}
\newlabel{pkg.commons:pkg.commons.Person}{{1.1.2}{1}{Module contents}{section*.5}{}}
\newlabel{pkg.commons:pkg.commons.Person.full_name}{{1.1.2}{1}{Module contents}{section*.6}{}}
\@writefile{toc}{\contentsline {subsection}{\numberline {1.1.3}pkg.core package}{1}{subsection.1.1.3}\protected@file@percent }
\newlabel{pkg.core:pkg-core-package}{{1.1.3}{1}{pkg.core package}{subsection.1.1.3}{}}
\newlabel{pkg.core::doc}{{1.1.3}{1}{pkg.core package}{subsection.1.1.3}{}}
\@writefile{toc}{\contentsline {subsubsection}{Module contents}{1}{subsubsection*.7}\protected@file@percent }
\newlabel{pkg.core:module-pkg.core}{{1.1.3}{1}{Module contents}{subsubsection*.7}{}}
\newlabel{pkg.core:module-contents}{{1.1.3}{1}{Module contents}{subsubsection*.7}{}}
\newlabel{pkg.core:pkg.core.UID}{{1.1.3}{1}{Module contents}{section*.8}{}}
\@writefile{toc}{\contentsline {subsection}{\numberline {1.1.4}pkg.exceptions package}{2}{subsection.1.1.4}\protected@file@percent }
\newlabel{pkg.exceptions:pkg-exceptions-package}{{1.1.4}{2}{pkg.exceptions package}{subsection.1.1.4}{}}
\newlabel{pkg.exceptions::doc}{{1.1.4}{2}{pkg.exceptions package}{subsection.1.1.4}{}}
\@writefile{toc}{\contentsline {subsubsection}{Module contents}{2}{subsubsection*.9}\protected@file@percent }
\newlabel{pkg.exceptions:module-pkg.exceptions}{{1.1.4}{2}{Module contents}{subsubsection*.9}{}}
\newlabel{pkg.exceptions:module-contents}{{1.1.4}{2}{Module contents}{subsubsection*.9}{}}
\newlabel{pkg.exceptions:pkg.exceptions.MyException}{{1.1.4}{2}{Module contents}{section*.10}{}}
\newlabel{pkg.exceptions:pkg.exceptions.MyWarning}{{1.1.4}{2}{Module contents}{section*.11}{}}
\@writefile{toc}{\contentsline {section}{\numberline {1.2}Module contents}{2}{section.1.2}\protected@file@percent }
\newlabel{pkg:module-pkg}{{1.2}{2}{Module contents}{section.1.2}{}}
\newlabel{pkg:module-contents}{{1.2}{2}{Module contents}{section.1.2}{}}
\@writefile{toc}{\contentsline {chapter}{\numberline {2}Indices and tables}{3}{chapter.2}\protected@file@percent }
\@writefile{lof}{\addvspace {10\p@ }}
\@writefile{lot}{\addvspace {10\p@ }}
\newlabel{index:indices-and-tables}{{2}{3}{Indices and tables}{chapter.2}{}}
\@writefile{toc}{\contentsline {chapter}{Python Module Index}{5}{section*.12}\protected@file@percent }
